{
    "NAME_CYCLE_FREFIX":"Vennpoint Functionality Test - [A] -",
    "PROJECT_ID":"21200",
    "VERSION_ID":"-1",
    "ZAPI_ACCESS_KEY":"amlyYTo5Njk0MDgyOS0wNDYxLTRmMmQtOWVjMy1lYTRmZDVhYmY1ZDAgdGhhaS5uaHUgVVNFUl9ERUZBVUxUX05BTUU",
    "ZAPI_CREATE_CYCLE":"https://prod-api.zephyr4jiracloud.com/connect/public/rest/api/1.0/cycle?expand=&clonedCycleId=",
    "ZAPI_CREATE_EXECUTION":"https://prod-api.zephyr4jiracloud.com/connect/public/rest/api/1.0/execution"
}